v 20130925 2
C 45500 50100 1 180 0 DB37-1.sym
{
T 44100 50250 5 10 0 0 0 0 1
device=DB37
T 45000 38500 5 10 1 1 0 0 1
refdes=DSub 37 MALE CONNECTOR
}
C 34900 38200 1 0 0 BNC-1.sym
{
T 35250 38850 5 10 0 0 0 0 1
device=BNC
T 34900 39000 5 10 1 1 0 0 1
refdes=CH1
}
C 34800 37600 1 0 0 ground.sym
N 35000 38200 35000 37900 4
C 34900 40100 1 0 0 BNC-1.sym
{
T 35250 40750 5 10 0 0 0 0 1
device=BNC
T 34900 40900 5 10 1 1 0 0 1
refdes=CH2
}
C 34800 39500 1 0 0 ground.sym
N 35000 40100 35000 39800 4
C 34900 42000 1 0 0 BNC-1.sym
{
T 35250 42650 5 10 0 0 0 0 1
device=BNC
T 34900 42800 5 10 1 1 0 0 1
refdes=CH3
}
C 34800 41400 1 0 0 ground.sym
N 35000 42000 35000 41700 4
C 34900 43700 1 0 0 BNC-1.sym
{
T 35250 44350 5 10 0 0 0 0 1
device=BNC
T 34800 44500 5 10 1 1 0 0 1
refdes=CH4
}
C 34800 43100 1 0 0 ground.sym
N 35000 43700 35000 43400 4
C 39600 38600 1 0 0 resistor-2.sym
{
T 40000 38950 5 10 0 0 0 0 1
device=RESISTOR
T 39800 38900 5 10 1 1 0 0 1
refdes=1K
}
C 39600 40500 1 0 0 resistor-2.sym
{
T 40000 40850 5 10 0 0 0 0 1
device=RESISTOR
T 39800 40800 5 10 1 1 0 0 1
refdes=1K
}
N 35400 38700 39600 38700 4
N 35400 40600 39600 40600 4
N 35400 42500 39600 42500 4
N 39000 40800 44200 40800 4
N 42200 49500 44200 49500 4
N 42200 38700 42200 49500 4
N 43600 43800 43600 49500 4
N 43600 48000 44200 48000 4
N 40500 40600 42200 40600 4
N 40500 38700 42200 38700 4
N 39100 40600 39100 39600 4
N 39100 39600 44200 39600 4
N 39200 38700 39200 39000 4
N 39200 39000 44200 39000 4
N 44200 43800 43600 43800 4
N 44200 44400 43600 44400 4
N 44200 45000 43600 45000 4
N 44200 45600 43600 45600 4
N 44200 46200 43600 46200 4
N 44200 46800 43600 46800 4
N 44200 47400 43600 47400 4
C 34800 44900 1 0 0 DB25-2.sym
{
T 36200 50250 5 10 0 0 0 0 1
device=DB25
T 35200 50600 5 10 1 1 0 0 1
refdes=MALE DB25
}
C 39500 44100 1 0 0 resistor-2.sym
{
T 39900 44450 5 10 0 0 0 0 1
device=RESISTOR
T 39700 44400 5 10 1 1 0 0 1
refdes=1K
}
C 39600 42400 1 0 0 resistor-2.sym
{
T 40000 42750 5 10 0 0 0 0 1
device=RESISTOR
T 39800 42700 5 10 1 1 0 0 1
refdes=1K
}
N 35400 44200 39500 44200 4
N 40400 44200 42200 44200 4
N 40500 42500 42200 42500 4
N 38800 42500 38800 40200 4
N 38800 40200 44200 40200 4
N 39000 44200 39000 40800 4
N 36300 49700 40900 49700 4
N 40900 41400 40900 49700 4
N 40900 41400 44200 41400 4
C 34400 45000 1 0 0 ground.sym
N 34600 45300 34600 45500 4
N 34600 45500 34800 45500 4
N 36300 49300 41300 49300 4
N 41300 49300 41300 42000 4
N 41300 42000 44200 42000 4
N 36300 48900 40700 48900 4
N 40700 42600 40700 48900 4
N 40700 42600 44200 42600 4
N 36300 48500 41800 48500 4
N 41800 43200 41800 48500 4
N 41800 43200 44200 43200 4
C 45700 49200 1 0 0 ground.sym
N 45100 49500 45900 49500 4
T 32500 38500 9 10 1 0 0 0 1
Female BNC connector
T 32500 40500 9 10 1 0 0 0 1
Female BNC connector
T 32500 42400 9 10 1 0 0 0 1
Female BNC connector
T 32500 44000 9 10 1 0 0 0 1
Female BNC connector
G 48000 44025 7300 5475 0 0 0
/home/jundurraga/Downloads/IMG_20170316_102715(1).jpg
